<?xml version="1.0" encoding="UTF-8" standalone="no"?>
<!-- Created with Inkscape (http://www.inkscape.org/) -->

<svg
   xmlns:dc="http://purl.org/dc/elements/1.1/"
   xmlns:cc="http://creativecommons.org/ns#"
   xmlns:rdf="http://www.w3.org/1999/02/22-rdf-syntax-ns#"
   xmlns:svg="http://www.w3.org/2000/svg"
   xmlns="http://www.w3.org/2000/svg"
   xmlns:xlink="http://www.w3.org/1999/xlink"
   xmlns:sodipodi="http://sodipodi.sourceforge.net/DTD/sodipodi-0.dtd"
   xmlns:inkscape="http://www.inkscape.org/namespaces/inkscape"
   width="239.92302mm"
   height="76.797203mm"
   viewBox="0 0 239.92302 76.7972"
   version="1.1"
   id="svg8"
   inkscape:version="0.92.4 (5da689c313, 2019-01-14)"
   sodipodi:docname="doliscan_web-logo.svg"
   inkscape:export-filename="/home/erics/dev/openNoteDeFrais/doliscan/logo/doliscan_web-logo_400.png"
   inkscape:export-xdpi="42.349998"
   inkscape:export-ydpi="42.349998">
  <defs
     id="defs2">
    <style
       id="style10"
       type="text/css">
    .fil56 {fill:#226036;fill-rule:nonzero}
    .fil27 {fill:#242222;fill-rule:nonzero}
    .fil69 {fill:#343332;fill-rule:nonzero}
    .fil48 {fill:#929292;fill-rule:nonzero}
    .fil47 {fill:#989897;fill-rule:nonzero}
    .fil46 {fill:#9D9D9D;fill-rule:nonzero}
    .fil45 {fill:#A4A3A2;fill-rule:nonzero}
    .fil68 {fill:#A8842A;fill-rule:nonzero}
    .fil44 {fill:#A8A8A7;fill-rule:nonzero}
    .fil43 {fill:#AFB0AE;fill-rule:nonzero}
    .fil42 {fill:#B5B5B5;fill-rule:nonzero}
    .fil26 {fill:#B7282C;fill-rule:nonzero}
    .fil41 {fill:#BCBCBB;fill-rule:nonzero}
    .fil95 {fill:#C2282D;fill-rule:nonzero}
    .fil40 {fill:#C3C2C0;fill-rule:nonzero}
    .fil24 {fill:#C7282D;fill-rule:nonzero}
    .fil39 {fill:#C9C8C6;fill-rule:nonzero}
    .fil38 {fill:#CDCDCD;fill-rule:nonzero}
    .fil37 {fill:#D1D1D3;fill-rule:nonzero}
    .fil36 {fill:#D8DADA;fill-rule:nonzero}
    .fil35 {fill:#DFDFDF;fill-rule:nonzero}
    .fil34 {fill:#E3E5E5;fill-rule:nonzero}
    .fil33 {fill:#E8EAE9;fill-rule:nonzero}
    .fil23 {fill:#ED7C6C;fill-rule:nonzero}
    .fil32 {fill:#EEF0EF;fill-rule:nonzero}
    .fil31 {fill:#F4F4F4;fill-rule:nonzero}
    .fil30 {fill:#F7F9FA;fill-rule:nonzero}
    .fil29 {fill:#FBFCFC;fill-rule:nonzero}
    .fil20 {fill:#FEFEFE;fill-rule:nonzero}
    .fil19 {fill:black;fill-rule:nonzero}
    .fil79 {fill:#626262;fill-rule:nonzero}
    .fil59 {fill:#7A7A7B;fill-rule:nonzero}
    .fil49 {fill:#8B8C8C;fill-rule:nonzero}
    .fil21 {fill:#959595;fill-rule:nonzero}
    .fil73 {fill:#969797;fill-rule:nonzero}
    .fil12 {fill:#9B9B9B;fill-rule:nonzero}
    .fil11 {fill:#A4A5A5;fill-rule:nonzero}
    .fil10 {fill:#AEAEAE;fill-rule:nonzero}
    .fil9 {fill:#B6B7B7;fill-rule:nonzero}
    .fil25 {fill:#BBBBBC;fill-rule:nonzero}
    .fil8 {fill:silver;fill-rule:nonzero}
    .fil7 {fill:#C9C9C9;fill-rule:nonzero}
    .fil18 {fill:#CBCBCB;fill-rule:nonzero}
    .fil6 {fill:#D1D1D1;fill-rule:nonzero}
    .fil5 {fill:#D9D9D9;fill-rule:nonzero}
    .fil72 {fill:#DEDEDE;fill-rule:nonzero}
    .fil4 {fill:#E1E1E1;fill-rule:nonzero}
    .fil3 {fill:#E9E9E9;fill-rule:nonzero}
    .fil2 {fill:#F0F1F1;fill-rule:nonzero}
    .fil1 {fill:#F8F8F8;fill-rule:nonzero}
    .fil0 {fill:white;fill-rule:nonzero}
    .fil94 {fill:url(#id0)}
    .fil61 {fill:url(#id1)}
    .fil15 {fill:url(#id2)}
    .fil85 {fill:url(#id3)}
    .fil74 {fill:url(#id4)}
    .fil80 {fill:url(#id5)}
    .fil90 {fill:url(#id6)}
    .fil14 {fill:url(#id7)}
    .fil50 {fill:url(#id8)}
    .fil62 {fill:url(#id9)}
    .fil57 {fill:url(#id10)}
    .fil55 {fill:url(#id11)}
    .fil16 {fill:url(#id12)}
    .fil13 {fill:url(#id13)}
    .fil67 {fill:url(#id14)}
    .fil58 {fill:url(#id15)}
    .fil60 {fill:url(#id16)}
    .fil93 {fill:url(#id17)}
    .fil65 {fill:url(#id18)}
    .fil66 {fill:url(#id19)}
    .fil91 {fill:url(#id20)}
    .fil86 {fill:url(#id21)}
    .fil81 {fill:url(#id22)}
    .fil75 {fill:url(#id23)}
    .fil63 {fill:url(#id24)}
    .fil52 {fill:url(#id25)}
    .fil64 {fill:url(#id26)}
    .fil51 {fill:url(#id27)}
    .fil92 {fill:url(#id28)}
    .fil87 {fill:url(#id29)}
    .fil82 {fill:url(#id30)}
    .fil76 {fill:url(#id31)}
    .fil53 {fill:url(#id32)}
    .fil54 {fill:url(#id33)}
    .fil88 {fill:url(#id34)}
    .fil83 {fill:url(#id35)}
    .fil77 {fill:url(#id36)}
    .fil70 {fill:url(#id37)}
    .fil17 {fill:url(#id38)}
    .fil28 {fill:url(#id39)}
    .fil22 {fill:url(#id40)}
    .fil89 {fill:url(#id41)}
    .fil84 {fill:url(#id42)}
    .fil78 {fill:url(#id43)}
    .fil71 {fill:url(#id44)}
  </style>
    <linearGradient
       x1="2874.3999"
       y1="1988"
       x2="3453.1001"
       gradientUnits="userSpaceOnUse"
       y2="2222.2"
       id="id0">
      <stop
         id="stop12"
         offset="0"
         style="stop-color:#464446" />
      <stop
         id="stop14"
         offset="1"
         style="stop-color:#242222" />
    </linearGradient>
    <linearGradient
       x1="1445.3"
       y1="2694.5"
       x2="3840.8"
       gradientUnits="userSpaceOnUse"
       y2="2694.5"
       id="id1">
      <stop
         id="stop17"
         offset="0"
         style="stop-color:#868686" />
      <stop
         id="stop19"
         offset="1"
         style="stop-color:#A8A8A7" />
    </linearGradient>
    <linearGradient
       x1="83.079002"
       y1="0.65564001"
       x2="1526.6"
       gradientUnits="userSpaceOnUse"
       y2="1591.7"
       id="id2"
       gradientTransform="matrix(0.26458333,0,0,0.26458333,-593.2438,-432.27821)">
      <stop
         id="stop22"
         offset="0"
         style="stop-color:#FEFEFE" />
      <stop
         id="stop24"
         offset="1"
         style="stop-color:#E65B44" />
    </linearGradient>
    <linearGradient
       x1="2751.2"
       y1="1578.7"
       x2="2568"
       gradientUnits="userSpaceOnUse"
       y2="1940.1"
       id="id3">
      <stop
         id="stop27"
         offset="0"
         style="stop-color:#EEF0F1" />
      <stop
         id="stop29"
         offset="1"
         style="stop-color:#363232" />
    </linearGradient>
    <linearGradient
       x1="1435.6"
       y1="1692.3"
       x2="1229"
       gradientUnits="userSpaceOnUse"
       xlink:href="#id3"
       y2="2099.8999"
       id="id4"
       gradientTransform="matrix(0.26458333,0,0,0.26458333,80.324991,-324.57783)" />
    <linearGradient
       x1="2111"
       y1="1638.9"
       x2="1923.6"
       gradientUnits="userSpaceOnUse"
       xlink:href="#id3"
       y2="2008.8"
       id="id5"
       gradientTransform="matrix(0.26458333,0,0,0.26458333,80.324991,-324.57783)" />
    <linearGradient
       x1="3295.3"
       y1="1531.7"
       x2="3121.6001"
       gradientUnits="userSpaceOnUse"
       xlink:href="#id3"
       y2="1874.5"
       id="id6"
       gradientTransform="matrix(0.26458333,0,0,0.26458333,80.324991,-324.57783)" />
    <linearGradient
       x1="265.62"
       y1="-18.09"
       x2="1533.7"
       gradientUnits="userSpaceOnUse"
       y2="1610.4"
       id="id7"
       gradientTransform="matrix(0.26458333,0,0,0.26458333,-593.2438,-432.27821)">
      <stop
         id="stop35"
         offset="0"
         style="stop-color:#F6BBB2" />
      <stop
         id="stop37"
         offset="1"
         style="stop-color:#E54F2F" />
    </linearGradient>
    <linearGradient
       x1="633.08002"
       y1="3459.6001"
       x2="1387.4"
       gradientUnits="userSpaceOnUse"
       y2="4031.8"
       id="id8"
       gradientTransform="matrix(0.26458333,0,0,0.26458333,80.324991,-324.57783)">
      <stop
         id="stop40"
         offset="0"
         style="stop-color:#07A346" />
      <stop
         id="stop42"
         offset="1"
         style="stop-color:#256036" />
    </linearGradient>
    <linearGradient
       x1="2265.8"
       y1="3617.6001"
       x2="2440.1001"
       gradientUnits="userSpaceOnUse"
       y2="1732.2"
       id="id9"
       gradientTransform="matrix(0.26458333,0,0,0.26458333,80.324991,-324.57783)">
      <stop
         id="stop45"
         offset="0"
         style="stop-color:#ECEEEE" />
      <stop
         id="stop47"
         offset="1"
         style="stop-color:#BCBDBE" />
    </linearGradient>
    <linearGradient
       x1="3874.7"
       y1="3154.7"
       x2="1293.5"
       gradientUnits="userSpaceOnUse"
       y2="2412.8"
       id="id10">
      <stop
         id="stop50"
         offset="0"
         style="stop-color:#CFD1D0" />
      <stop
         id="stop52"
         offset="1"
         style="stop-color:#C0C1C2" />
    </linearGradient>
    <linearGradient
       x1="432.07999"
       y1="2112.3"
       x2="1399.3"
       gradientUnits="userSpaceOnUse"
       y2="3851.7"
       id="id11"
       gradientTransform="matrix(0.26458333,0,0,0.26458333,80.324991,-324.57783)">
      <stop
         id="stop55"
         offset="0"
         style="stop-color:#BCD770" />
      <stop
         id="stop57"
         offset="1"
         style="stop-color:#42AF41" />
    </linearGradient>
    <linearGradient
       x1="1186.2"
       y1="1886.5"
       x2="808.09003"
       gradientUnits="userSpaceOnUse"
       y2="107.73"
       id="id12"
       gradientTransform="matrix(0.26458333,0,0,0.26458333,-593.2438,-432.27821)">
      <stop
         id="stop60"
         offset="0"
         style="stop-color:#F7C9C3" />
      <stop
         id="stop62"
         offset="1"
         style="stop-color:#67332E" />
    </linearGradient>
    <linearGradient
       x1="600.09998"
       y1="-37.179001"
       x2="1394.2"
       gradientUnits="userSpaceOnUse"
       y2="2031.4"
       id="id13"
       gradientTransform="matrix(0.26458333,0,0,0.26458333,-593.2438,-432.27821)">
      <stop
         id="stop65"
         offset="0"
         style="stop-color:#EC6F5C" />
      <stop
         id="stop67"
         offset="1"
         style="stop-color:#BA322D" />
    </linearGradient>
    <linearGradient
       x1="1196.4"
       y1="1501.8"
       x2="3208.3"
       gradientUnits="userSpaceOnUse"
       y2="2721.8999"
       id="id14"
       gradientTransform="matrix(0.26458333,0,0,0.26458333,80.324991,-324.57783)">
      <stop
         id="stop70"
         offset="0"
         style="stop-color:#FDD247" />
      <stop
         id="stop72"
         offset="1"
         style="stop-color:#EDBD04" />
    </linearGradient>
    <linearGradient
       x1="2058.6001"
       y1="3831.3999"
       x2="1255"
       gradientUnits="userSpaceOnUse"
       y2="1919"
       id="id15"
       gradientTransform="matrix(0.26458333,0,0,0.26458333,80.324991,-324.57783)">
      <stop
         id="stop75"
         offset="0"
         style="stop-color:#F0F1F3" />
      <stop
         id="stop77"
         offset="1"
         style="stop-color:#C0C1C2" />
    </linearGradient>
    <linearGradient
       x1="827.04999"
       y1="3183.5"
       x2="2340.7"
       gradientUnits="userSpaceOnUse"
       y2="2275.3"
       id="id16"
       gradientTransform="matrix(0.26458333,0,0,0.26458333,80.324991,-324.57783)">
      <stop
         id="stop80"
         offset="0"
         style="stop-color:#ECEEEE" />
      <stop
         id="stop82"
         offset="1"
         style="stop-color:#878887" />
    </linearGradient>
    <linearGradient
       x1="1283.6"
       y1="2008.7"
       x2="1779.3"
       gradientUnits="userSpaceOnUse"
       xlink:href="#id0"
       y2="2533"
       id="id17"
       gradientTransform="matrix(0.26458333,0,0,0.26458333,80.324991,-324.57783)" />
    <linearGradient
       x1="3023.1001"
       y1="3535.8"
       x2="2345.1001"
       gradientUnits="userSpaceOnUse"
       xlink:href="#id1"
       y2="1652.5"
       id="id18"
       gradientTransform="matrix(0.26458333,0,0,0.26458333,80.324991,-324.57783)" />
    <linearGradient
       x1="2986.6001"
       y1="1575.6"
       x2="1734"
       gradientUnits="userSpaceOnUse"
       y2="3581.3"
       id="id19"
       gradientTransform="matrix(0.26458333,0,0,0.26458333,80.324991,-324.57783)">
      <stop
         id="stop87"
         offset="0"
         style="stop-color:#E8EAEB" />
      <stop
         id="stop89"
         offset="1"
         style="stop-color:#FEFEFE" />
    </linearGradient>
    <linearGradient
       x1="3221.8"
       y1="1522.7"
       x2="3142.5"
       gradientUnits="userSpaceOnUse"
       y2="1826"
       id="id20">
      <stop
         id="stop92"
         offset="0"
         style="stop-color:#FEFEFE" />
      <stop
         id="stop94"
         offset="1"
         style="stop-color:#8F9090" />
    </linearGradient>
    <linearGradient
       x1="2673.7"
       y1="1569.2"
       x2="2590.1001"
       gradientUnits="userSpaceOnUse"
       xlink:href="#id20"
       y2="1889"
       id="id21"
       gradientTransform="matrix(0.26458333,0,0,0.26458333,80.324991,-324.57783)" />
    <linearGradient
       x1="2031.7"
       y1="1629.2"
       x2="1946.2"
       gradientUnits="userSpaceOnUse"
       xlink:href="#id20"
       y2="1956.4"
       id="id22"
       gradientTransform="matrix(0.26458333,0,0,0.26458333,80.324991,-324.57783)" />
    <linearGradient
       x1="1348.1"
       y1="1681.6"
       x2="1253.9"
       gradientUnits="userSpaceOnUse"
       xlink:href="#id20"
       y2="2042.2"
       id="id23"
       gradientTransform="matrix(0.26458333,0,0,0.26458333,80.324991,-324.57783)" />
    <linearGradient
       x1="1841.1"
       y1="2943.7"
       x2="917.20001"
       gradientUnits="userSpaceOnUse"
       y2="2395.3999"
       id="id24"
       gradientTransform="matrix(0.26458333,0,0,0.26458333,80.324991,-324.57783)">
      <stop
         id="stop100"
         offset="0"
         style="stop-color:#FEFEFE" />
      <stop
         id="stop102"
         offset="1"
         style="stop-color:#878887" />
    </linearGradient>
    <linearGradient
       x1="2067.8"
       y1="1983.1"
       x2="2531.3999"
       gradientUnits="userSpaceOnUse"
       y2="3713.3"
       id="id25"
       gradientTransform="matrix(0.26458333,0,0,0.26458333,80.324991,-324.57783)">
      <stop
         id="stop105"
         offset="0"
         style="stop-color:#13AA44" />
      <stop
         id="stop107"
         offset="1"
         style="stop-color:#0C7E41" />
    </linearGradient>
    <linearGradient
       x1="1677.2"
       y1="2846.5"
       x2="1081.1"
       gradientUnits="userSpaceOnUse"
       y2="2492.7"
       id="id26"
       gradientTransform="matrix(0.26458333,0,0,0.26458333,80.324991,-324.57783)">
      <stop
         id="stop110"
         offset="0"
         style="stop-color:#878887" />
      <stop
         id="stop112"
         offset="1"
         style="stop-color:#DCDDDE" />
    </linearGradient>
    <linearGradient
       x1="2175.5"
       y1="2384.8"
       x2="2423.8"
       gradientUnits="userSpaceOnUse"
       y2="3311.6001"
       id="id27"
       gradientTransform="matrix(0.26458333,0,0,0.26458333,80.324991,-324.57783)">
      <stop
         id="stop115"
         offset="0"
         style="stop-color:#13AA44" />
      <stop
         id="stop117"
         offset="1"
         style="stop-color:#13AA44" />
    </linearGradient>
    <linearGradient
       x1="3197.1001"
       y1="1617"
       x2="3167.2"
       gradientUnits="userSpaceOnUse"
       y2="1731.7"
       id="id28">
      <stop
         id="stop120"
         offset="0"
         style="stop-color:#8F9090" />
      <stop
         id="stop122"
         offset="1"
         style="stop-color:#332F2F" />
    </linearGradient>
    <linearGradient
       x1="2647.7"
       y1="1668.6"
       x2="2616.1001"
       gradientUnits="userSpaceOnUse"
       xlink:href="#id28"
       y2="1789.6"
       id="id29"
       gradientTransform="matrix(0.26458333,0,0,0.26458333,80.324991,-324.57783)" />
    <linearGradient
       x1="2005.1"
       y1="1730.9"
       x2="1972.8"
       gradientUnits="userSpaceOnUse"
       xlink:href="#id28"
       y2="1854.7"
       id="id30"
       gradientTransform="matrix(0.26458333,0,0,0.26458333,80.324991,-324.57783)" />
    <linearGradient
       x1="1318.9"
       y1="1793.7"
       x2="1283.2"
       gradientUnits="userSpaceOnUse"
       xlink:href="#id28"
       y2="1930.1"
       id="id31"
       gradientTransform="matrix(0.26458333,0,0,0.26458333,80.324991,-324.57783)" />
    <linearGradient
       x1="2250"
       y1="2662.8"
       x2="2349.3"
       gradientUnits="userSpaceOnUse"
       y2="3033.6001"
       id="id32"
       gradientTransform="matrix(0.26458333,0,0,0.26458333,80.324991,-324.57783)">
      <stop
         id="stop128"
         offset="0"
         style="stop-color:#0C7E41" />
      <stop
         id="stop130"
         offset="1"
         style="stop-color:#50B23F" />
    </linearGradient>
    <linearGradient
       x1="2283.1001"
       y1="2786.3999"
       x2="2316.2"
       gradientUnits="userSpaceOnUse"
       y2="2910"
       id="id33"
       gradientTransform="matrix(0.26458333,0,0,0.26458333,80.324991,-324.57783)">
      <stop
         id="stop133"
         offset="0"
         style="stop-color:#50B23F" />
      <stop
         id="stop135"
         offset="1"
         style="stop-color:#256036" />
    </linearGradient>
    <radialGradient
       r="58.137001"
       cx="3134.5"
       cy="1673.1"
       gradientUnits="userSpaceOnUse"
       id="id34">
      <stop
         id="stop138"
         offset="0"
         style="stop-color:#585858" />
      <stop
         id="stop140"
         offset=".41176"
         style="stop-color:#585858" />
      <stop
         id="stop142"
         offset=".70980"
         style="stop-color:#332F2F" />
      <stop
         id="stop144"
         offset="1"
         style="stop-color:#332F2F" />
    </radialGradient>
    <radialGradient
       r="61.310001"
       cy="1727.7"
       gradientUnits="userSpaceOnUse"
       xlink:href="#id34"
       cx="2581.7"
       id="id35"
       gradientTransform="matrix(0.26458333,0,0,0.26458333,80.324991,-324.57783)" />
    <radialGradient
       r="62.730999"
       cy="1791.5"
       gradientUnits="userSpaceOnUse"
       xlink:href="#id34"
       cx="1937.6"
       id="id36"
       gradientTransform="matrix(0.26458333,0,0,0.26458333,80.324991,-324.57783)" />
    <radialGradient
       r="69.133003"
       cy="1860.4"
       gradientUnits="userSpaceOnUse"
       xlink:href="#id34"
       cx="1244.4"
       id="id37"
       gradientTransform="matrix(0.26458333,0,0,0.26458333,80.324991,-324.57783)" />
    <radialGradient
       r="191.41"
       cx="646.34003"
       cy="512.71002"
       gradientUnits="userSpaceOnUse"
       id="id38"
       gradientTransform="matrix(0.26458333,0,0,0.26458333,-593.2438,-432.27821)">
      <stop
         id="stop150"
         offset="0"
         style="stop-color:#F4F6F7" />
      <stop
         id="stop152"
         offset="1"
         style="stop-color:#C7C7C6" />
    </radialGradient>
    <radialGradient
       r="6.3912001"
       cx="989.28003"
       cy="983.23999"
       gradientUnits="userSpaceOnUse"
       id="id39"
       gradientTransform="matrix(0.26458333,0,0,0.26458333,-593.2438,-432.27821)">
      <stop
         id="stop155"
         offset="0"
         style="stop-color:#FEFEFE" />
      <stop
         id="stop157"
         offset="1"
         style="stop-color:#332F2F" />
    </radialGradient>
    <radialGradient
       r="163.46001"
       cx="672.15002"
       cy="518.39001"
       gradientUnits="userSpaceOnUse"
       id="id40"
       gradientTransform="matrix(0.26458333,0,0,0.26458333,-593.2438,-432.27821)">
      <stop
         id="stop160"
         offset="0"
         style="stop-color:#E5252A" />
      <stop
         id="stop162"
         offset="1"
         style="stop-color:#D8262B" />
    </radialGradient>
    <radialGradient
       r="24.416"
       cx="3134.5"
       cy="1673.1"
       gradientUnits="userSpaceOnUse"
       id="id41">
      <stop
         id="stop165"
         offset="0"
         style="stop-color:#FEFEFE" />
      <stop
         id="stop167"
         offset="1"
         style="stop-color:#585858" />
    </radialGradient>
    <radialGradient
       r="25.75"
       cy="1727.7"
       gradientUnits="userSpaceOnUse"
       xlink:href="#id41"
       cx="2581.7"
       id="id42"
       gradientTransform="matrix(0.26458333,0,0,0.26458333,80.324991,-324.57783)" />
    <radialGradient
       r="26.348"
       cy="1791.5"
       gradientUnits="userSpaceOnUse"
       xlink:href="#id41"
       cx="1937.6"
       id="id43"
       gradientTransform="matrix(0.26458333,0,0,0.26458333,80.324991,-324.57783)" />
    <radialGradient
       r="29.035999"
       cy="1860.4"
       gradientUnits="userSpaceOnUse"
       xlink:href="#id41"
       cx="1244.4"
       id="id44"
       gradientTransform="matrix(0.26458333,0,0,0.26458333,80.324991,-324.57783)" />
  </defs>
  <sodipodi:namedview
     id="base"
     pagecolor="#ffffff"
     bordercolor="#666666"
     borderopacity="1.0"
     inkscape:pageopacity="0.0"
     inkscape:pageshadow="2"
     inkscape:zoom="2.1292228"
     inkscape:cx="457.80999"
     inkscape:cy="133.12017"
     inkscape:document-units="mm"
     inkscape:current-layer="layer1"
     showgrid="false"
     inkscape:window-width="4096"
     inkscape:window-height="2032"
     inkscape:window-x="0"
     inkscape:window-y="41"
     inkscape:window-maximized="1"
     fit-margin-top="0"
     fit-margin-left="0"
     fit-margin-right="0"
     fit-margin-bottom="0" />
  <metadata
     id="metadata5">
    <rdf:RDF>
      <cc:Work
         rdf:about="">
        <dc:format>image/svg+xml</dc:format>
        <dc:type
           rdf:resource="http://purl.org/dc/dcmitype/StillImage" />
        <dc:title />
      </cc:Work>
    </rdf:RDF>
  </metadata>
  <g
     inkscape:label="Calque 1"
     inkscape:groupmode="layer"
     id="layer1"
     transform="translate(-60.105991,101.36221)">
    <g
       id="g967"
       transform="translate(0.35728187,-0.64899273)">
      <text
         id="text938"
         y="-42.211521"
         x="59.206837"
         style="font-style:normal;font-variant:normal;font-weight:200;font-stretch:normal;font-size:70.55555725px;line-height:108.46895599px;font-family:Penna;-inkscape-font-specification:'Penna, Ultra-Light';font-variant-ligatures:normal;font-variant-caps:normal;font-variant-numeric:normal;font-feature-settings:normal;text-align:start;letter-spacing:0px;word-spacing:0px;writing-mode:lr-tb;text-anchor:start;fill:#000000;fill-opacity:1;stroke:none;stroke-width:4.33875847px;stroke-linecap:butt;stroke-linejoin:miter;stroke-opacity:1"
         xml:space="preserve"><tspan
           style="font-style:normal;font-variant:normal;font-weight:200;font-stretch:normal;font-size:70.55555725px;font-family:Penna;-inkscape-font-specification:'Penna, Ultra-Light';font-variant-ligatures:normal;font-variant-caps:normal;font-variant-numeric:normal;font-feature-settings:normal;text-align:start;writing-mode:lr-tb;text-anchor:start;stroke-width:4.33875847px"
           y="-42.211521"
           x="59.206837"
           id="tspan936"
           sodipodi:role="line">DoliSCAN</tspan></text>
      <text
         id="text942"
         y="-28.420137"
         x="178.12405"
         style="font-style:italic;font-variant:normal;font-weight:300;font-stretch:normal;font-size:8.46666622px;line-height:11.79724789px;font-family:Ubuntu;-inkscape-font-specification:'Ubuntu, Light Italic';font-variant-ligatures:normal;font-variant-caps:normal;font-variant-numeric:normal;font-feature-settings:normal;text-align:start;letter-spacing:0px;word-spacing:0px;writing-mode:lr-tb;text-anchor:start;fill:#000000;fill-opacity:1;stroke:none;stroke-width:0.47188994px;stroke-linecap:butt;stroke-linejoin:miter;stroke-opacity:1"
         xml:space="preserve"><tspan
           style="font-style:italic;font-variant:normal;font-weight:300;font-stretch:normal;font-size:8.46666622px;font-family:Ubuntu;-inkscape-font-specification:'Ubuntu, Light Italic';font-variant-ligatures:normal;font-variant-caps:normal;font-variant-numeric:normal;font-feature-settings:normal;text-align:start;writing-mode:lr-tb;text-anchor:start;stroke-width:0.47188994px"
           y="-28.420137"
           x="178.12405"
           id="tspan940"
           sodipodi:role="line">Votre assistant &quot;notes de frais&quot; ...</tspan></text>
    </g>
  </g>
</svg>
